                       ,1,2,3,4,5,6,7,8,9,10,11,12,13,14,15,16,17,18,19,20,21,22,23,24,25,26,27,28,29,30,31,32,33,34,35
250,X,12,0,15,0,0,0,1,,,,,,,,,,,,,,,,,,,,,,,,,,,
600,X,X,,,,,,4,,,,,,,,,,,,,,,,,,,,,,,,,,,
1000,X,X,,,,,,4,,,,,,,,,,,,,,,,,,,,,,,,,,,
200,X,X,,,,,,6,,,,,,,,,,,,,,,,,,,,,,,,,,,
1000,X,X,,,,,,4,,,,,,,,,,,,,,,,,,,,,,,,,,,
200,X,X,,,,,,5,,,,,,,,,,,,,,,,,,,,,,,,,,,
1000,X,X,,,,,,6,,,,,,,,,,,,,,,,,,,,,,,,,,,
200,X,X,,,,,,7,,,,,,,,,,,,,,,,,,,,,,,,,,,
1000,X,X,,,,,,8,,,,,,,,,,,,,,,,,,,,,,,,,,,
200,X,X,,,,,,8,,,,,,,,,,,,,,,,,,,,,,,,,,,
1000,X,X,,,,,,8,,,,,,,,,,,,,,,,,,,,,,,,,,,
200,X,X,,,,,,8,,,,,,,,,,,,,,,,,,,,,,,,,,,
1000,X,X,,,,,,8,,,,,,,,,,,,,,,,,,,,,,,,,,,
200,X,X,,,,,,8,,,,,,,,,,,,,,,,,,,,,,,,,,,
1000,X,X,,,,,,8,,,,,,,,,,,,,,,,,,,,,,,,,,,
200,X,X,,,,,,8,,,,,,,,,,,,,,,,,,,,,,,,,,,
1000,X,X,,,,,,8,,,,,,,,,,,,,,,,,,,,,,,,,,,
200,X,X,,,,,,8,,,,,,,,,,,,,,,,,,,,,,,,,,,
1000,X,X,,,,,,8,,,,,,,,,,,,,,,,,,,,,,,,,,,
200,X,X,,,,,,8,,,,,,,,,,,,,,,,,,,,,,,,,,,
1000,X,X,,,,,,8,,,,,,,,,,,,,,,,,,,,,,,,,,,
200,X,X,,,,,,8,,,,,,,,,,,,,,,,,,,,,,,,,,,
1000,X,X,,,,,,8,,,,,,,,,,,,,,,,,,,,,,,,,,,
200,X,X,,,,,,8,,,,,,,,,,,,,,,,,,,,,,,,,,,
1000,X,X,,,,,,8,,,,,,,,,,,,,,,,,,,,,,,,,,,
200,X,X,,,,,,8,,,,,,,,,,,,,,,,,,,,,,,,,,,
1000,X,X,,,,,,8,,,,,,,,,,,,,,,,,,,,,,,,,,,
200,X,X,,,,,,8,,,,,,,,,,,,,,,,,,,,,,,,,,,
1000,X,X,,,,,,8,,,,,,,,,,,,,,,,,,,,,,,,,,,
200,X,X,,,,,,8,,,,,,,,,,,,,,,,,,,,,,,,,,,
1000,X,X,,,,,,8,,,,,,,,,,,,,,,,,,,,,,,,,,,
200,X,X,,,,,,8,,,,,,,,,,,,,,,,,,,,,,,,,,,
1000,X,X,,,,,,8,,,,,,,,,,,,,,,,,,,,,,,,,,,
200,X,X,,,,,,8,,,,,,,,,,,,,,,,,,,,,,,,,,,
1000,X,X,,,,,,8,,,,,,,,,,,,,,,,,,,,,,,,,,,
200,X,X,,,,,,8,,,,,,,,,,,,,,,,,,,,,,,,,,,
1000,X,X,,,,,,8,,,,,,,,,,,,,,,,,,,,,,,,,,,
200,X,X,,,,,,8,,,,,,,,,,,,,,,,,,,,,,,,,,,
250,X,X,,,,,,8,,,,,,,,,,,,,,,,,,,,,,,,,,,
600,X,X,,,,,,8,,,,,,,,,,,,,,,,,,,,,,,,,,,
600,X,X,,,,,,8,,,,,,,,,,,,,,,,,,,,,,,,,,,
600,X,X,,,,,,8,,,,,,,,,,,,,,,,,,,,,,,,,,,
600,X,X,,,,,,8,,,,,,,,,,,,,,,,,,,,,,,,,,,
600,X,X,,,,,,8,,,,,,,,,,,,,,,,,,,,,,,,,,,
600,X,X,,,,,,8,,,,,,,,,,,,,,,,,,,,,,,,,,,
600,X,X,,,,,,8,,,,,,,,,,,,,,,,,,,,,,,,,,,
600,X,X,,,,,,8,,,,,,,,,,,,,,,,,,,,,,,,,,,
600,X,X,,,,,,8,,,,,,,,,,,,,,,,,,,,,,,,,,,
600,X,X,,,,,,8,,,,,,,,,,,,,,,,,,,,,,,,,,,
600,X,X,,,,,,8,,,,,,,,,,,,,,,,,,,,,,,,,,,
600,X,X,,,,,,8,,,,,,,,,,,,,,,,,,,,,,,,,,,
600,X,X,,,,,,8,,,,,,,,,,,,,,,,,,,,,,,,,,,
600,X,X,,,,,,8,,,,,,,,,,,,,,,,,,,,,,,,,,,
600,X,X,,,,,,8,,,,,,,,,,,,,,,,,,,,,,,,,,,
600,X,X,,,,,,8,,,,,,,,,,,,,,,,,,,,,,,,,,,
600,X,X,,,,,,8,,,,,,,,,,,,,,,,,,,,,,,,,,,
600,X,X,,,,,,8,,,,,,,,,,,,,,,,,,,,,,,,,,,
600,X,X,,,,,,8,,,,,,,,,,,,,,,,,,,,,,,,,,,
600,X,X,,,,,,8,,,,,,,,,,,,,,,,,,,,,,,,,,,
600,X,X,,,,,,8,,,,,,,,,,,,,,,,,,,,,,,,,,,
600,X,X,,,,,,8,,,,,,,,,,,,,,,,,,,,,,,,,,,
600,X,X,,,,,,8,,,,,,,,,,,,,,,,,,,,,,,,,,,
600,X,X,,,,,,8,,,,,,,,,,,,,,,,,,,,,,,,,,,
600,X,X,,,,,,8,,,,,,,,,,,,,,,,,,,,,,,,,,,
600,X,X,,,,,,8,,,,,,,,,,,,,,,,,,,,,,,,,,,
600,X,X,,,,,,8,,,,,,,,,,,,,,,,,,,,,,,,,,,
600,X,X,,,,,,8,,,,,,,,,,,,,,,,,,,,,,,,,,,
600,X,X,,,,,,8,,,,,,,,,,,,,,,,,,,,,,,,,,,
600,X,X,,,,,,8,,,,,,,,,,,,,,,,,,,,,,,,,,,
600,X,X,,,,,,8,,,,,,,,,,,,,,,,,,,,,,,,,,,
600,X,X,,,,,,8,,,,,,,,,,,,,,,,,,,,,,,,,,,
600,X,X,,,,,,8,,,,,,,,,,,,,,,,,,,,,,,,,,,
600,X,X,,,,,,8,,,,,,,,,,,,,,,,,,,,,,,,,,,
600,X,X,,,,,,8,,,,,,,,,,,,,,,,,,,,,,,,,,,
600,X,X,,,,,,8,,,,,,,,,,,,,,,,,,,,,,,,,,,
600,X,X,,,,,,8,,,,,,,,,,,,,,,,,,,,,,,,,,,
600,X,X,,,,,,8,,,,,,,,,,,,,,,,,,,,,,,,,,,
600,X,X,,,,,,8,,,,,,,,,,,,,,,,,,,,,,,,,,,
600,,,,,,,,,,,,,,,,,,,,,,,,,,,,,,,,,,,
600,,,,,,,,,,,,,,,,,,,,,,,,,,,,,,,,,,,
600,,,,,,,,,,,,,,,,,,,,,,,,,,,,,,,,,,,
600,,,,,,,,,,,,,,,,,,,,,,,,,,,,,,,,,,,
600,,,,,,,,,,,,,,,,,,,,,,,,,,,,,,,,,,,
600,,,,,,,,,,,,,,,,,,,,,,,,,,,,,,,,,,,
600,,,,,,,,,,,,,,,,,,,,,,,,,,,,,,,,,,,
600,,,,,,,,,,,,,,,,,,,,,,,,,,,,,,,,,,,
600,,,,,,,,,,,,,,,,,,,,,,,,,,,,,,,,,,,
600,,,,,,,,,,,,,,,,,,,,,,,,,,,,,,,,,,,
600,,,,,,,,,,,,,,,,,,,,,,,,,,,,,,,,,,,
600,,,,,,,,,,,,,,,,,,,,,,,,,,,,,,,,,,,
600,,,,,,,,,,,,,,,,,,,,,,,,,,,,,,,,,,,
600,,,,,,,,,,,,,,,,,,,,,,,,,,,,,,,,,,,
600,,,,,,,,,,,,,,,,,,,,,,,,,,,,,,,,,,,
600,,,,,,,,,,,,,,,,,,,,,,,,,,,,,,,,,,,
600,,,,,,,,,,,,,,,,,,,,,,,,,,,,,,,,,,,
600,,,,,,,,,,,,,,,,,,,,,,,,,,,,,,,,,,,
600,,,,,,,,,,,,,,,,,,,,,,,,,,,,,,,,,,,
600,,,,,,,,,,,,,,,,,,,,,,,,,,,,,,,,,,,
600,,,,,,,,,,,,,,,,,,,,,,,,,,,,,,,,,,,
600,,,,,,,,,,,,,,,,,,,,,,,,,,,,,,,,,,,
600,,,,,,,,,,,,,,,,,,,,,,,,,,,,,,,,,,,
600,,,,,,,,,,,,,,,,,,,,,,,,,,,,,,,,,,,
600,,,,,,,,,,,,,,,,,,,,,,,,,,,,,,,,,,,
600,,,,,,,,,,,,,,,,,,,,,,,,,,,,,,,,,,,
600,,,,,,,,,,,,,,,,,,,,,,,,,,,,,,,,,,,
600,,,,,,,,,,,,,,,,,,,,,,,,,,,,,,,,,,,
600,,,,,,,,,,,,,,,,,,,,,,,,,,,,,,,,,,,
600,,,,,,,,,,,,,,,,,,,,,,,,,,,,,,,,,,,
600,,,,,,,,,,,,,,,,,,,,,,,,,,,,,,,,,,,
600,,,,,,,,,,,,,,,,,,,,,,,,,,,,,,,,,,,
600,,,,,,,,,,,,,,,,,,,,,,,,,,,,,,,,,,,
600,,,,,,,,,,,,,,,,,,,,,,,,,,,,,,,,,,,
600,,,,,,,,,,,,,,,,,,,,,,,,,,,,,,,,,,,
600,,,,,,,,,,,,,,,,,,,,,,,,,,,,,,,,,,,
600,,,,,,,,,,,,,,,,,,,,,,,,,,,,,,,,,,,
600,,,,,,,,,,,,,,,,,,,,,,,,,,,,,,,,,,,
600,,,,,,,,,,,,,,,,,,,,,,,,,,,,,,,,,,,
600,,,,,,,,,,,,,,,,,,,,,,,,,,,,,,,,,,,
600,,,,,,,,,,,,,,,,,,,,,,,,,,,,,,,,,,,
600,,,,,,,,,,,,,,,,,,,,,,,,,,,,,,,,,,,
600,,,,,,,,,,,,,,,,,,,,,,,,,,,,,,,,,,,
600,,,,,,,,,,,,,,,,,,,,,,,,,,,,,,,,,,,
600,,,,,,,,,,,,,,,,,,,,,,,,,,,,,,,,,,,
600,,,,,,,,,,,,,,,,,,,,,,,,,,,,,,,,,,,
600,,,,,,,,,,,,,,,,,,,,,,,,,,,,,,,,,,,
600,,,,,,,,,,,,,,,,,,,,,,,,,,,,,,,,,,,
600,,,,,,,,,,,,,,,,,,,,,,,,,,,,,,,,,,,
600,,,,,,,,,,,,,,,,,,,,,,,,,,,,,,,,,,,
600,,,,,,,,,,,,,,,,,,,,,,,,,,,,,,,,,,,
600,,,,,,,,,,,,,,,,,,,,,,,,,,,,,,,,,,,
250,X,12,100,15,0,0,0,1,,,,,,,,,,,,,,,,,,,,,,,,,,,
250,X,X,,,,,,1,,,,,,,,,,,,,,,,,,,,,,,,,,,
250,X,X,,,,,,1,,,,,,,,,,,,,,,,,,,,,,,,,,,
250,X,X,,,,,,1,,,,,,,,,,,,,,,,,,,,,,,,,,,
250,X,X,,,,,,1,,,,,,,,,,,,,,,,,,,,,,,,,,,
250,X,X,,,,,,1,,,,,,,,,,,,,,,,,,,,,,,,,,,
250,X,X,,,,,,1,,,,,,,,,,,,,,,,,,,,,,,,,,,
250,X,X,,,,,,1,,,,,,,,,,,,,,,,,,,,,,,,,,,
250,X,X,,,,,,1,,,,,,,,,,,,,,,,,,,,,,,,,,,
250,X,X,,,,,,1,,,,,,,,,,,,,,,,,,,,,,,,,,,
250,X,X,,,,,,1,,,,,,,,,,,,,,,,,,,,,,,,,,,
250,X,X,,,,,,1,,,,,,,,,,,,,,,,,,,,,,,,,,,
250,X,X,,,,,,1,,,,,,,,,,,,,,,,,,,,,,,,,,,
250,X,X,,,,,,1,,,,,,,,,,,,,,,,,,,,,,,,,,,
250,X,X,,,,,,1,,,,,,,,,,,,,,,,,,,,,,,,,,,
250,X,X,,,,,,1,,,,,,,,,,,,,,,,,,,,,,,,,,,
250,X,X,,,,,,1,,,,,,,,,,,,,,,,,,,,,,,,,,,
250,X,X,,,,,,1,,,,,,,,,,,,,,,,,,,,,,,,,,,
250,X,X,,,,,,1,,,,,,,,,,,,,,,,,,,,,,,,,,,
250,X,X,,,,,,1,,,,,,,,,,,,,,,,,,,,,,,,,,,
250,X,X,,,,,,1,,,,,,,,,,,,,,,,,,,,,,,,,,,
250,X,X,,,,,,1,,,,,,,,,,,,,,,,,,,,,,,,,,,
250,X,X,,,,,,1,,,,,,,,,,,,,,,,,,,,,,,,,,,
250,X,X,,,,,,1,,,,,,,,,,,,,,,,,,,,,,,,,,,
250,X,X,,,,,,1,,,,,,,,,,,,,,,,,,,,,,,,,,,
250,X,X,,,,,,1,,,,,,,,,,,,,,,,,,,,,,,,,,,
250,X,X,,,,,,1,,,,,,,,,,,,,,,,,,,,,,,,,,,
250,X,X,,,,,,1,,,,,,,,,,,,,,,,,,,,,,,,,,,
250,X,X,,,,,,1,,,,,,,,,,,,,,,,,,,,,,,,,,,
250,X,X,,,,,,1,,,,,,,,,,,,,,,,,,,,,,,,,,,
250,X,X,,,,,,1,,,,,,,,,,,,,,,,,,,,,,,,,,,
250,X,X,,,,,,1,,,,,,,,,,,,,,,,,,,,,,,,,,,
250,X,X,,,,,,1,,,,,,,,,,,,,,,,,,,,,,,,,,,
250,X,X,,,,,,1,,,,,,,,,,,,,,,,,,,,,,,,,,,
250,X,X,,,,,,1,,,,,,,,,,,,,,,,,,,,,,,,,,,
250,X,X,,,,,,1,,,,,,,,,,,,,,,,,,,,,,,,,,,
250,X,X,,,,,,1,,,,,,,,,,,,,,,,,,,,,,,,,,,
250,X,X,,,,,,1,,,,,,,,,,,,,,,,,,,,,,,,,,,
250,X,X,,,,,,1,,,,,,,,,,,,,,,,,,,,,,,,,,,
250,X,X,,,,,,1,,,,,,,,,,,,,,,,,,,,,,,,,,,
,,,,,,,,,,,,,,,,,,,,,,,,,,,,,,,,,,,
250,X,12,0,15,0,0,0,1,,,,,,,,,,,,,,,,,,,,,,,,,,,
600,X,X,,,,,,4,,,,,,,,,,,,,,,,,,,,,,,,,,,
600,X,X,,,,,,4,,,,,,,,,,,,,,,,,,,,,,,,,,,
600,X,X,,,,,,4,,,,,,,,,,,,,,,,,,,,,,,,,,,
600,X,X,,,,,,4,,,,,,,,,,,,,,,,,,,,,,,,,,,
600,X,X,,,,,,4,,,,,,,,,,,,,,,,,,,,,,,,,,,
600,X,X,,,,,,4,,,,,,,,,,,,,,,,,,,,,,,,,,,
600,X,X,,,,,,4,,,,,,,,,,,,,,,,,,,,,,,,,,,
600,X,X,,,,,,4,,,,,,,,,,,,,,,,,,,,,,,,,,,
600,X,X,,,,,,4,,,,,,,,,,,,,,,,,,,,,,,,,,,
600,X,X,,,,,,4,,,,,,,,,,,,,,,,,,,,,,,,,,,
600,X,X,,,,,,4,,,,,,,,,,,,,,,,,,,,,,,,,,,
600,X,X,,,,,,4,,,,,,,,,,,,,,,,,,,,,,,,,,,
600,X,X,,,,,,4,,,,,,,,,,,,,,,,,,,,,,,,,,,
600,X,X,,,,,,4,,,,,,,,,,,,,,,,,,,,,,,,,,,
600,X,X,,,,,,4,,,,,,,,,,,,,,,,,,,,,,,,,,,
600,X,X,,,,,,4,,,,,,,,,,,,,,,,,,,,,,,,,,,
600,X,X,,,,,,4,,,,,,,,,,,,,,,,,,,,,,,,,,,
600,X,X,,,,,,4,,,,,,,,,,,,,,,,,,,,,,,,,,,
600,X,X,,,,,,4,,,,,,,,,,,,,,,,,,,,,,,,,,,