                       ,1,2,3,4,5,6,7,8,9,10,11,12,13,14,15,16,17,18,19,20,21,22,23,24,25,26,27,28,29,30,31,32,33,34,35
100,O,,,,,,,,,,,,,,,,,,,,,,,,,,,,,,,,,,
100,,,,,,,,,,,,,,,,,,,,,,,,,,,,,,,,,,,O
100,O,,,,,,,,,,,,,,,,,,,,,,,,,,,,,,,,,,
100,,,,,,,,,,,,,,,,,,,,,,,,,,,,,,,,,,,
100,X,12,100,100,100,100,100,,,,,,,,,,,,,,,,,,,,,,,,,,,,
100,X,X,,,,,,,,,,,,,,,,,,,,,,,,,,,,,,,,,
100,X,X,,,,,,,,,,,,,,,,,,,,,,,,,,,,,,,,,
100,X,X,,,,,,,,,,,,,,,,,,,,,,,,,,,,,,,,,
100,X,X,,,,,,,,,,,,,,,,,,,,,,,,,,,,,,,,,
100,X,X,,,,,,,,,,,,,,,,,,,,,,,,,,,,,,,,,
100,X,X,,,,,,,,,,,,,,,,,,,,,,,,,,,,,,,,,
100,X,X,,,,,,,,,,,,,,,,,,,,,,,,,,,,,,,,,
100,X,X,,,,,,,,,,,,,,,,,,,,,,,,,,,,,,,,,
100,X,X,,,,,,,,,,,,,,,,,,,,,,,,,,,,,,,,,
100,X,X,,,,,,,,,,,,,,,,,,,,,,,,,,,,,,,,,
100,X,X,,,,,,,,,,,,,,,,,,,,,,,,,,,,,,,,,
100,X,X,,,,,,,,,,,,,,,,,,,,,,,,,,,,,,,,,
100,X,X,,,,,,,,,,,,,,,,,,,,,,,,,,,,,,,,,
100,,,,,,,,,,,,,,,,,,,,,,,,,,,,,,,,,,,
100,X,X,,,,,,,,,,,,,,,,,,,,,,,,,,,,,,,,,
100,X,X,,,,,,,,,,,,,,,,,,,,,,,,,,,,,,,,,
100,X,X,,,,,,,,,,,,,,,,,,,,,,,,,,,,,,,,,
100,X,X,,,,,,,,,,,,,,,,,,,,,,,,,,,,,,,,,
100,X,X,,,,,,,,,,,,,,,,,,,,,,,,,,,,,,,,,
100,X,X,,,,,,,,,,,,,,,,,,,,,,,,,,,,,,,,,
100,X,X,,,,,,,,,,,,,,,,,,,,,,,,,,,,,,,,,
100,,,,,,,,,,,,,,,,,,,,,,,,,,,,,,,,,,,
100,,,,,,,,,,,,,,,,,,,,,,,,,,,,,,,,,,,
100,,,,,,,,,,,,,,,,,,,,,,,,,,,,,,,,,,,
100,,,,,,,,,,,,,,,,,,,,,,,,,,,,,,,,,,,
100,,,,,,,,,,,,,,,,,,,,,,,,,,,,,,,,,,,
100,,,,,,,,,,,,O,,,,,,,,,,,,,,,,,,,,P,,,
100,,,P,,,,P,,,P,,,,,,P,,,,,,P,,,,,P,,,,,,,,
100,,,,,,,,,,,,,,,,,,,,,,,,,,B,,,,,,,,,
100,,,,,,,,,,,,,,P,,,,,,,,,,,,,,P,,,,,,,
100,,,,,,,,,,,,,,,,,,,,,,,,,,,,,,,,,,,
100,,,,,,,,,,,,,,,,,,,,,,,,P,,,,,,,,,,,
100,,,,,,,,,,,,,,,,,,,,,,,,,,,,,,,,,,,
100,,,,,,,,,,,,,,,,,P,,,,,,,,,,,,,,,,,,
100,,,,,,,,,,,,,,,,,,,,,,,,,,,,,,,,,,,
100,,,,,,,,,,,,,,,,,,,,,,,,,,,,,,,,,,,
100,,,,,,,,,,,,,,,,,,,,,,,,,B,,,,,,,,,,
100,,,,,,,,,,,,,,,,,,,,,,,,,,,,,B,,B,,,,
100,,,,,,,,,,,,,,,,,,,,,,,,,,,,,,,,,,,
100,,,,,,,,,,,,,,,,,,,,,,,,,,,,,,,,,,,
100,,,,,,,,,,,,,,,,,,,,,,,,,,,,,,,,,,,
100,,,,,,,,,,,,,,,B,,,B,,B,,B,B,,,,,,,B,,,,,
100,,,,,,,,,,,,,,,,,,,,B,,,,,,,,,,,,,,,
100,,,,B,B,,,,,,,,,,,,,,,,,,,,,,,,,,,,,,
100,,,,,,,,,,,,,,,,,,,,,,,,,,,,,,,,,,,
100,,B,B,B,B,B,B,B,B,B,,,,,,,,,,,,,,,,,,,,,,,,,
100,X,X,,,,,,,,,,,,,,,,,,,,,,,,,,,,,,,,,
100,X,X,,,,,,,,,,,,,,,,,,,,,,,,,,,,,,,,,
100,X,X,,,,,,,,,,,,,,,,,,,,,,,,,,,,,,,,,
100,X,X,,,,,,,,,,,,,,,,,,,,,,,,,,,,,,,,,
100,X,X,,,,,,,,,,,,,,,,,,,,,,,,,,,,,,,,,
100,X,X,,,,,,,,,,,,,,,,,,,,,,,,,,,,,,,,,
100,X,X,,,,,,,,,,,,,,,,,,,,,,,,,,,,,,,,,
100,X,X,,,,,,,,,,,,,,,,,,,,,,,,,,,,,,,,,
100,X,X,,,,,,,,,,,,,,,,,,,,,,,,,,,,,,,,,
100,X,X,,,,,,,,,,,,,,,,,,,,,,,,,,,,,,,,,
100,X,X,,,,,,,,,,,,,,,,,,,,,,,,,,,,,,,,,
100,X,X,,,,,,,,,,,,,,,,,,,,,,,,,,,,,,,,,
100,X,X,,,,,,,,,,,,,,,,,,,,,,,,,,,,,,,,,
100,X,X,,,,,,,,,,,,,,,,,,,,,,,,,,,,,,,,,
100,X,X,,,,,,,,,,,,,,,,,,,,,,,,,,,,,,,,,
100,X,X,,,,,,,,,,,,,,,,,,,,,,,,,,,,,,,,,
100,X,X,,,,,,,,,,,,,,,,,,,,,,,,,,,,,,,,,
100,X,X,,,,,,,,,,,,,,,,,,,,,,,,,,,,,,,,,
100,X,X,,,,,,,,,,,,,,,,,,,,,,,,,,,,,,,,,
100,X,X,,,,,,,,,,,,,,,,,,,,,,,,,,,,,,,,,
100,X,X,,,,,,,,,,,,,,,,,,,,,,,,,,,,,,,,,
100,X,X,,,,,,,,,,,,,,,,,,,,,,,,,,,,,,,,,
100,X,X,,,,,,,,,,,,,,,,,,,,,,,,,,,,,,,,,
100,X,X,,,,,,,,,,,,,,,,,,,,,,,,,,,,,,,,,
100,X,X,,,,,,,,,,,,,,,,,,,,,,,,,,,,,,,,,
100,X,X,,,,,,,,,,,,,,,,,,,,,,,,,,,,,,,,,
100,X,X,,,,,,,,,,,,,,,,,,,,,,,,,,,,,,,,,
100,X,X,,,,,,,,,,,,,,,,,,,,,,,,,,,,,,,,,
100,X,X,,,,,,,,,,,,,,,,,,,,,,,,,,,,,,,,,
100,X,X,,,,,,,,,,,,,,,,,,,,,,,,,,,,,,,,,
100,X,X,,,,,,,,,,,,,,,,,,,,,,,,,,,,,,,,,
100,X,X,,,,,,,,,,,,,,,,,,,,,,,,,,,,,,,,,
100,,,,,,,,,,,,,,,,,,,,,,,,,,,,,,,,,,,
100,,,,,,,,,,,,,,,,,,,,,,,,,,,,,,,,,,,
100,,,,,,,,,,,,,,,,,,,,,,,,,,,,,,,,,,,
100,,,,,,,,,,,,,,,,,,,,,,,,,,,,,,,,,,,
100,,,,,,,,,,,,,,,,,,,,,,,,,,,,,,,,,,,
100,,,,,,,,,,,,,,,,,,,,,,,,,,,,,,,,,,,
100,,,,,,,,,,,,,,,,,,,,,,,,,,,,,,,,,,,
100,,,,,,,,,,,,,,,,,,,,,,,,,,,,,,,,,,,
100,,,,,,,,,,,,,,,,,,,,,,,,,,,,,,,,,,,
100,,,,,,,,,,,,,,,,,,,,,,,,,,,,,,,,,,,
100,,,,,,,,,,,,,,,,,,,,,,,,,,,,,,,,,,,
100,,,,,,,,,,,,,,,,,,,,,,,,,,,,,,,,,,,
100,,,,,,,,,,,,,,,,,,,,,,,,,,,,,,,,,,,
100,,,,,,,,,,,,,,,,,,,,,,,,,,,,,,,,,,,
100,,,,,,,,,,,,,,,,,,,,,,,,,,,,,,,,,,,
100,,,,,,,,,,,,,,,,,,,,,,,,,,,,,,,,,,,
100,,,,,,,,,,,,,,,,,,,,,,,,,,,,,,,,,,,
100,,,,,,,,,,,,,,,,,,,,,,,,,,,,,,,,,,,
100,,,,,,,,,,,,,,,,,,,,,,,,,,,,,,,,,,,
100,,,,,,,,,,,,,,,,,,,,,,,,,,,,,,,,,,,
100,,,,,,,,,,,,,,,,,,,,,,,,,,,,,,,,,,,
100,,,,,,,,,,,,,,,,,,,,,,,,,,,,,,,,,,,
100,,,,,,,,,,,,,,,,,,,,,,,,,,,,,,,,,,,
100,,,,,,,,,,,,,,,,,,,,,,,,,,,,,,,,,,,
100,,,,,,,,,,,,,,,,,,,,,,,,,,,,,,,,,,,
100,,,,,,,,,,,,,,,,,,,,,,,,,,,,,,,,,,,
100,,,,,,,,,,,,,,,,,,,,,,,,,,,,,,,,,,,
100,,,,,,,,,,,,,,,,,,,,,,,,,,,,,,,,,,,
100,,,,,,,,,,,,,,,,,,,,,,,,,,,,,,,,,,,
100,,,,,,,,,,,,,,,,,,,,,,,,,,,,,,,,,,,
100,,,,,,,,,,,,,,,,,,,,,,,,,,,,,,,,,,,
100,,,,,,,,,,,,,,,,,,,,,,,,,,,,,,,,,,,
100,,,,,,,,,,,,,,,,,,,,,,,,,,,,,,,,,,,
100,,,,,,,,,,,,,,,,,,,,,,,,,,,,,,,,,,,
100,,,,,,,,,,,,,,,,,,,,,,,,,,,,,,,,,,,
100,,,,,,,,,,,,,,,,,,,,,,,,,,,,,,,,,,,
100,,,,,,,,,,,,,,,,,,,,,,,,,,,,,,,,,,,
100,,,,,,,,,,,,,,,,,,,,,,,,,,,,,,,,,,,
100,,,,,,,,,,,,,,,,,,,,,,,,,,,,,,,,,,,
100,,,,,,,,,,,,,,,,,,,,,,,,,,,,,,,,,,,